EESchema Schematic File Version 4
EELAYER 30 0
EELAYER END
$Descr A4 11693 8268
encoding utf-8
Sheet 1 1
Title "LiFePo4 Charger"
Date "2021-10-16"
Rev "1"
Comp "Florian Schuetz"
Comment1 ""
Comment2 ""
Comment3 ""
Comment4 ""
$EndDescr
$Comp
L Device:LED LED1
U 1 1 611A1BEE
P 3900 2900
F 0 "LED1" V 3939 2782 50  0000 R CNN
F 1 "RED" V 3848 2782 50  0000 R CNN
F 2 "LED_SMD:LED_0805_2012Metric_Pad1.15x1.40mm_HandSolder" H 3900 2900 50  0001 C CNN
F 3 "~" H 3900 2900 50  0001 C CNN
	1    3900 2900
	0    -1   -1   0   
$EndComp
$Comp
L Device:R R1
U 1 1 611A2B63
P 4400 3550
F 0 "R1" V 4193 3550 50  0000 C CNN
F 1 "1200" V 4284 3550 50  0000 C CNN
F 2 "Resistor_SMD:R_2512_6332Metric_Pad1.40x3.35mm_HandSolder" V 4330 3550 50  0001 C CNN
F 3 "~" H 4400 3550 50  0001 C CNN
	1    4400 3550
	0    1    1    0   
$EndComp
$Comp
L Device:R R3
U 1 1 611A325D
P 5100 3350
F 0 "R3" H 5170 3396 50  0000 L CNN
F 1 "680" H 5170 3305 50  0000 L CNN
F 2 "Resistor_SMD:R_2512_6332Metric_Pad1.40x3.35mm_HandSolder" V 5030 3350 50  0001 C CNN
F 3 "~" H 5100 3350 50  0001 C CNN
	1    5100 3350
	1    0    0    -1  
$EndComp
$Comp
L Device:R R4
U 1 1 611A3AFB
P 5100 4050
F 0 "R4" H 5170 4096 50  0000 L CNN
F 1 "1200" H 5170 4005 50  0000 L CNN
F 2 "Resistor_SMD:R_2512_6332Metric_Pad1.40x3.35mm_HandSolder" V 5030 4050 50  0001 C CNN
F 3 "~" H 5100 4050 50  0001 C CNN
	1    5100 4050
	1    0    0    -1  
$EndComp
$Comp
L Device:R R5
U 1 1 611A63AF
P 6250 2100
F 0 "R5" V 6043 2100 50  0000 C CNN
F 1 "2200" V 6134 2100 50  0000 C CNN
F 2 "Resistor_SMD:R_2512_6332Metric_Pad1.40x3.35mm_HandSolder" V 6180 2100 50  0001 C CNN
F 3 "~" H 6250 2100 50  0001 C CNN
	1    6250 2100
	0    1    1    0   
$EndComp
$Comp
L Diode:1N4007 D1
U 1 1 611A7501
P 7450 2100
F 0 "D1" H 7450 1883 50  0000 C CNN
F 1 "1N4007" H 7450 1974 50  0000 C CNN
F 2 "Diode_SMD:D_SMA_Handsoldering" H 7450 1925 50  0001 C CNN
F 3 "http://www.vishay.com/docs/88503/1n4001.pdf" H 7450 2100 50  0001 C CNN
	1    7450 2100
	-1   0    0    1   
$EndComp
$Comp
L Device:R R6
U 1 1 611A7C2C
P 7200 2900
F 0 "R6" H 7270 2946 50  0000 L CNN
F 1 "1200" H 7270 2855 50  0000 L CNN
F 2 "Resistor_SMD:R_2512_6332Metric_Pad1.40x3.35mm_HandSolder" V 7130 2900 50  0001 C CNN
F 3 "~" H 7200 2900 50  0001 C CNN
	1    7200 2900
	1    0    0    -1  
$EndComp
$Comp
L Device:R R7
U 1 1 611A81A5
P 7650 2900
F 0 "R7" H 7720 2946 50  0000 L CNN
F 1 "1200" H 7720 2855 50  0000 L CNN
F 2 "Resistor_SMD:R_2512_6332Metric_Pad1.40x3.35mm_HandSolder" V 7580 2900 50  0001 C CNN
F 3 "~" H 7650 2900 50  0001 C CNN
	1    7650 2900
	1    0    0    -1  
$EndComp
$Comp
L Amplifier_Operational:LM358 U1
U 1 1 611A9000
P 6350 3650
F 0 "U1" H 6350 4017 50  0000 C CNN
F 1 "LM358" H 6350 3926 50  0000 C CNN
F 2 "Package_SO:SOP-8_3.9x4.9mm_P1.27mm" H 6350 3650 50  0001 C CNN
F 3 "http://www.ti.com/lit/ds/symlink/lm2904-n.pdf" H 6350 3650 50  0001 C CNN
	1    6350 3650
	-1   0    0    -1  
$EndComp
$Comp
L Device:LED LED2
U 1 1 611B0912
P 5100 4650
F 0 "LED2" V 5139 4532 50  0000 R CNN
F 1 "GREEN" V 5048 4532 50  0000 R CNN
F 2 "LED_SMD:LED_0805_2012Metric_Pad1.15x1.40mm_HandSolder" H 5100 4650 50  0001 C CNN
F 3 "~" H 5100 4650 50  0001 C CNN
	1    5100 4650
	0    -1   -1   0   
$EndComp
$Comp
L Device:LED LED3
U 1 1 611B1276
P 7200 4650
F 0 "LED3" V 7239 4532 50  0000 R CNN
F 1 "POWER" V 7148 4532 50  0000 R CNN
F 2 "LED_SMD:LED_0805_2012Metric_Pad1.15x1.40mm_HandSolder" H 7200 4650 50  0001 C CNN
F 3 "~" H 7200 4650 50  0001 C CNN
	1    7200 4650
	0    -1   -1   0   
$EndComp
$Comp
L Device:R R8
U 1 1 611B3DB6
P 7650 4650
F 0 "R8" H 7720 4696 50  0000 L CNN
F 1 "1200" H 7720 4605 50  0000 L CNN
F 2 "Resistor_SMD:R_2512_6332Metric_Pad1.40x3.35mm_HandSolder" V 7580 4650 50  0001 C CNN
F 3 "~" H 7650 4650 50  0001 C CNN
	1    7650 4650
	1    0    0    -1  
$EndComp
$Comp
L Device:R R2
U 1 1 611B40CA
P 4700 2900
F 0 "R2" H 4770 2946 50  0000 L CNN
F 1 "560" H 4770 2855 50  0000 L CNN
F 2 "Resistor_SMD:R_2512_6332Metric_Pad1.40x3.35mm_HandSolder" V 4630 2900 50  0001 C CNN
F 3 "~" H 4700 2900 50  0001 C CNN
	1    4700 2900
	1    0    0    -1  
$EndComp
Wire Wire Line
	4900 2550 4700 2550
Wire Wire Line
	4700 2550 4700 2750
Wire Wire Line
	5100 2850 5100 3100
Wire Wire Line
	6400 2100 6700 2100
Wire Wire Line
	4700 2550 4700 2100
Connection ~ 4700 2550
Wire Wire Line
	3900 2100 3900 2750
Wire Wire Line
	3900 3050 3900 3550
Wire Wire Line
	3900 3550 4250 3550
Wire Wire Line
	5100 3500 5100 3550
Connection ~ 5100 3650
Wire Wire Line
	5100 3650 5100 3900
Wire Wire Line
	7200 2100 7200 2750
Connection ~ 7200 2100
Wire Wire Line
	7200 2100 7300 2100
Wire Wire Line
	7200 3050 7200 3750
Wire Wire Line
	7200 4800 7200 5250
Wire Wire Line
	7200 5250 7650 5250
Wire Wire Line
	5100 5250 5100 4800
Wire Wire Line
	5100 4200 5100 4500
Connection ~ 3900 2100
Text Label 2850 2100 0    50   ~ 0
CHG_VDD
Connection ~ 5100 5250
Text Label 1900 5250 0    50   ~ 0
GND
Wire Wire Line
	6700 2550 6700 2100
Connection ~ 6700 2100
Wire Wire Line
	6700 2100 7200 2100
Wire Wire Line
	7600 2100 7650 2100
Text Label 7950 2100 0    50   ~ 0
BAT_V+
Wire Wire Line
	7650 2100 7650 2750
Connection ~ 7650 2100
Wire Wire Line
	7650 3050 7650 3550
Wire Wire Line
	7650 4800 7650 5250
Connection ~ 7650 5250
Wire Wire Line
	6650 3550 7650 3550
Connection ~ 7650 3550
Wire Wire Line
	7650 3550 7650 4500
Wire Wire Line
	6650 3750 7200 3750
Connection ~ 7200 3750
Wire Wire Line
	7200 3750 7200 4500
Wire Wire Line
	5100 5250 5600 5250
$Comp
L Amplifier_Operational:LM358 U1
U 3 1 611DA69D
P 6600 4250
F 0 "U1" H 6250 4300 50  0000 C CNN
F 1 "LM358" H 6250 4200 50  0000 C CNN
F 2 "Package_SO:SOP-8_3.9x4.9mm_P1.27mm" H 6600 4250 50  0001 C CNN
F 3 "http://www.ti.com/lit/ds/symlink/lm2904-n.pdf" H 6600 4250 50  0001 C CNN
	3    6600 4250
	1    0    0    -1  
$EndComp
Wire Notes Line
	6650 4700 6650 3200
Wire Notes Line
	6650 3200 6000 3200
Wire Notes Line
	6000 3200 6000 4700
Wire Notes Line
	6000 4700 6650 4700
Wire Wire Line
	3900 2100 4700 2100
Connection ~ 4700 2100
Wire Wire Line
	5100 3650 6050 3650
$Comp
L Device:C C1
U 1 1 611AE482
P 5600 4200
F 0 "C1" H 5485 4154 50  0000 R CNN
F 1 "100nF" H 5485 4245 50  0000 R CNN
F 2 "Capacitor_SMD:C_0805_2012Metric_Pad1.18x1.45mm_HandSolder" H 5638 4050 50  0001 C CNN
F 3 "~" H 5600 4200 50  0001 C CNN
	1    5600 4200
	-1   0    0    1   
$EndComp
Wire Wire Line
	5600 3950 5600 4050
Wire Wire Line
	5600 3950 6500 3950
Wire Wire Line
	5600 4550 5600 4350
Wire Wire Line
	5600 4550 6500 4550
Wire Wire Line
	4700 2100 5600 2100
Wire Wire Line
	5600 3950 5600 2100
Connection ~ 5600 3950
Connection ~ 5600 2100
Wire Wire Line
	5600 2100 6100 2100
Wire Wire Line
	5600 4550 5600 5250
Connection ~ 5600 4550
Connection ~ 5600 5250
Wire Wire Line
	5600 5250 7200 5250
Connection ~ 7200 5250
Wire Wire Line
	5300 2550 6700 2550
Wire Wire Line
	4700 3050 4700 3100
Wire Wire Line
	4700 3100 5100 3100
Connection ~ 5100 3100
Wire Wire Line
	5100 3100 5100 3200
Wire Wire Line
	2850 2100 3900 2100
$Comp
L Device:R R9
U 1 1 6126E4FB
P 3100 4050
F 0 "R9" H 3170 4096 50  0000 L CNN
F 1 "5100" H 3170 4005 50  0000 L CNN
F 2 "Resistor_SMD:R_2512_6332Metric_Pad1.40x3.35mm_HandSolder" V 3030 4050 50  0001 C CNN
F 3 "~" H 3100 4050 50  0001 C CNN
	1    3100 4050
	1    0    0    -1  
$EndComp
$Comp
L Device:R R10
U 1 1 6126EB9E
P 3500 4050
F 0 "R10" H 3570 4096 50  0000 L CNN
F 1 "5100" H 3570 4005 50  0000 L CNN
F 2 "Resistor_SMD:R_2512_6332Metric_Pad1.40x3.35mm_HandSolder" V 3430 4050 50  0001 C CNN
F 3 "~" H 3500 4050 50  0001 C CNN
	1    3500 4050
	1    0    0    -1  
$EndComp
Wire Wire Line
	2400 2600 3500 2600
Wire Wire Line
	3500 2600 3500 3900
Wire Wire Line
	3100 2700 3100 3900
Connection ~ 3500 5250
Wire Wire Line
	3500 5250 5100 5250
Wire Wire Line
	2400 2400 2850 2400
Wire Wire Line
	2850 2400 2850 2100
$Comp
L Device:Battery_Cell BT1
U 1 1 6127F95C
P 8250 3650
F 0 "BT1" H 8368 3746 50  0000 L CNN
F 1 "Battery_Cell" H 8368 3655 50  0000 L CNN
F 2 "Battery:BatteryHolder_SMD_SMT_1x18650" V 8250 3710 50  0001 C CNN
F 3 "~" V 8250 3710 50  0001 C CNN
	1    8250 3650
	1    0    0    -1  
$EndComp
Wire Wire Line
	8250 2100 8250 3450
Wire Wire Line
	7650 2100 8250 2100
Wire Wire Line
	8250 5250 8250 3750
Wire Wire Line
	7650 5250 8250 5250
Wire Wire Line
	1800 3900 1800 5250
Wire Wire Line
	1800 5250 3100 5250
NoConn ~ 2950 6050
Wire Wire Line
	2400 2700 3100 2700
$Comp
L Connector:USB_C_Receptacle_USB2.0 J1
U 1 1 612D0431
P 1800 3000
F 0 "J1" H 1907 3867 50  0000 C CNN
F 1 "USB_C_Receptacle_USB2.0" H 1907 3776 50  0000 C CNN
F 2 "Connector_USB:USB_C_Receptacle_HRO_TYPE-C-31-M-12" H 1950 3000 50  0001 C CNN
F 3 "https://www.usb.org/sites/default/files/documents/usb_type-c.zip" H 1950 3000 50  0001 C CNN
	1    1800 3000
	1    0    0    -1  
$EndComp
NoConn ~ 1500 3900
NoConn ~ 2400 3600
NoConn ~ 2400 3500
NoConn ~ 2400 3200
NoConn ~ 2400 3100
NoConn ~ 2400 3000
NoConn ~ 2400 2900
$Comp
L Library:S8550_BCE Q1
U 1 1 61379EE3
P 5100 2650
F 0 "Q1" V 5428 2650 50  0000 C CNN
F 1 "S8550_BCE" V 5337 2650 50  0000 C CNN
F 2 "Package_TO_SOT_SMD:SOT-23" H 5300 2575 50  0001 L CIN
F 3 "http://www.unisonic.com.tw/datasheet/S8550.pdf" H 5100 2650 50  0001 L CNN
	1    5100 2650
	0    1    -1   0   
$EndComp
Wire Wire Line
	4550 3550 5100 3550
Connection ~ 5100 3550
Wire Wire Line
	5100 3550 5100 3650
Text Label 6700 3550 0    50   ~ 0
VREF_BATT
Text Label 6700 3750 0    50   ~ 0
VREF_CHG
Wire Wire Line
	3500 4200 3500 5250
Wire Wire Line
	3100 4200 3100 5250
Connection ~ 3100 5250
Wire Wire Line
	3100 5250 3500 5250
$EndSCHEMATC
