%TF.GenerationSoftware,KiCad,Pcbnew,(5.1.10-1-10_14)*%
%TF.CreationDate,2021-09-18T00:20:09+02:00*%
%TF.ProjectId,LiFePo_ChargingUnit,4c694665-506f-45f4-9368-617267696e67,rev?*%
%TF.SameCoordinates,Original*%
%TF.FileFunction,Copper,L2,Bot*%
%TF.FilePolarity,Positive*%
%FSLAX46Y46*%
G04 Gerber Fmt 4.6, Leading zero omitted, Abs format (unit mm)*
G04 Created by KiCad (PCBNEW (5.1.10-1-10_14)) date 2021-09-18 00:20:09*
%MOMM*%
%LPD*%
G01*
G04 APERTURE LIST*
%TA.AperFunction,ComponentPad*%
%ADD10O,1.000000X2.100000*%
%TD*%
%TA.AperFunction,ComponentPad*%
%ADD11O,1.000000X1.600000*%
%TD*%
%TA.AperFunction,ViaPad*%
%ADD12C,0.800000*%
%TD*%
%TA.AperFunction,Conductor*%
%ADD13C,0.250000*%
%TD*%
G04 APERTURE END LIST*
D10*
%TO.P,J1,S1*%
%TO.N,Net-(J1-PadS1)*%
X145290000Y-66720000D03*
X136650000Y-66720000D03*
D11*
X136650000Y-70900000D03*
X145290000Y-70900000D03*
%TD*%
D12*
%TO.N,/BAT_V+*%
X88849200Y-54711600D03*
X129489200Y-54660800D03*
%TO.N,/CHG_VDD*%
X102362000Y-60452000D03*
X125730000Y-60452000D03*
X95300800Y-60452000D03*
X88493600Y-60452000D03*
%TO.N,Net-(D3-Pad2)*%
X115824000Y-62484000D03*
X99060000Y-62484000D03*
%TO.N,/GND*%
X144221200Y-64008000D03*
X138734800Y-64008000D03*
%TO.N,/VREF_BATT*%
X135382000Y-63246000D03*
X154686000Y-63246000D03*
X127254000Y-64516000D03*
%TD*%
D13*
%TO.N,/BAT_V+*%
X129438400Y-54711600D02*
X129489200Y-54660800D01*
X88849200Y-54711600D02*
X129438400Y-54711600D01*
%TO.N,/CHG_VDD*%
X103124000Y-60452000D02*
X125730000Y-60452000D01*
X102362000Y-60452000D02*
X103124000Y-60452000D01*
X102362000Y-60452000D02*
X95300800Y-60452000D01*
X95300800Y-60452000D02*
X88493600Y-60452000D01*
%TO.N,Net-(D3-Pad2)*%
X115824000Y-62484000D02*
X99060000Y-62484000D01*
%TO.N,Net-(J1-PadS1)*%
X136650000Y-66720000D02*
X136650000Y-70900000D01*
X145290000Y-66720000D02*
X145290000Y-70900000D01*
X136770001Y-66599999D02*
X136650000Y-66720000D01*
X144540000Y-66720000D02*
X144419999Y-66599999D01*
X144419999Y-66599999D02*
X136770001Y-66599999D01*
X145290000Y-66720000D02*
X144540000Y-66720000D01*
%TO.N,/GND*%
X144221200Y-64008000D02*
X138734800Y-64008000D01*
%TO.N,/VREF_BATT*%
X154432000Y-63246000D02*
X154686000Y-63500000D01*
X135382000Y-63246000D02*
X154432000Y-63246000D01*
X128524000Y-63246000D02*
X135382000Y-63246000D01*
X127254000Y-64516000D02*
X128524000Y-63246000D01*
%TD*%
M02*
