%!PS-Adobe-3.0
%%Creator: PCBNEW
%%CreationDate: Sat Sep 18 00:20:06 2021
%%Title: /Users/fschuetz/Documents/Electronics/Designs/LiFePo_ChargingUnit/gerber/LiFePo_ChargingUnit-drl_map.ps
%%Pages: 1
%%PageOrder: Ascend
%%BoundingBox: 0 0 596 842
%%DocumentMedia: A4 595 842 0 () ()
%%Orientation: Landscape
%%EndComments
%%BeginProlog
/line { newpath moveto lineto stroke } bind def
/cir0 { newpath 0 360 arc stroke } bind def
/cir1 { newpath 0 360 arc gsave fill grestore stroke } bind def
/cir2 { newpath 0 360 arc gsave fill grestore stroke } bind def
/arc0 { newpath arc stroke } bind def
/arc1 { newpath 4 index 4 index moveto arc closepath gsave fill
    grestore stroke } bind def
/arc2 { newpath 4 index 4 index moveto arc closepath gsave fill
    grestore stroke } bind def
/poly0 { stroke } bind def
/poly1 { closepath gsave fill grestore stroke } bind def
/poly2 { closepath gsave fill grestore stroke } bind def
/rect0 { rectstroke } bind def
/rect1 { rectfill } bind def
/rect2 { rectfill } bind def
/linemode0 { 0 setlinecap 0 setlinejoin 0 setlinewidth } bind def
/linemode1 { 1 setlinecap 1 setlinejoin } bind def
/dashedline { [200] 100 setdash } bind def
/solidline { [] 0 setdash } bind def
/phantomshow { moveto
    /KicadFont findfont 0.000001 scalefont setfont
    show } bind def
/textshow { gsave
    findfont exch scalefont setfont concat 1 scale 0 0 moveto show
    } bind def
/reencodefont {
  findfont dup length dict begin
  { 1 index /FID ne
    { def }
    { pop pop } ifelse
  } forall
  /Encoding ISOLatin1Encoding def
  currentdict
  end } bind def
/KicadFont /Helvetica reencodefont definefont pop
/KicadFont-Bold /Helvetica-Bold reencodefont definefont pop
/KicadFont-Oblique /Helvetica-Oblique reencodefont definefont pop
/KicadFont-BoldOblique /Helvetica-BoldOblique reencodefont definefont pop
%%EndProlog
%%Page: 1 1
%%BeginPageSetup
gsave
0.0072 0.0072 scale
linemode1
82680 0 translate 90 rotate
119.655 setlinewidth
%%EndPageSetup
0 0 0 setrgbcolor
94.2161 setlinewidth
20367 40454.3 3350.33 180 270 arc0
0 0 0 setrgbcolor
96563 75345.6 3350.33 -0 90 arc0
0 0 0 setrgbcolor
96419.4 40406.4 3350.33 -90 -0 arc0
0 0 0 setrgbcolor
20414.9 75297.7 3350.33 90 180 arc0
0 0 0 setrgbcolor
newpath
99913.3 75345.6 moveto
99769.7 40406.4 lineto
stroke
0 0 0 setrgbcolor
newpath
20414.9 78648 moveto
96563 78695.9 lineto
stroke
0 0 0 setrgbcolor
newpath
17016.7 40454.3 moveto
17064.5 75297.7 lineto
stroke
0 0 0 setrgbcolor
newpath
96419.4 37056.1 moveto
20367 37104 lineto
stroke
78.7393 setlinewidth
newpath
29224.5 49975.8 moveto
29601.3 49598.9 lineto
stroke
newpath
29601.3 49975.8 moveto
29224.5 49598.9 lineto
stroke
newpath
29559.5 55384.2 moveto
29936.4 55007.3 lineto
stroke
newpath
29936.4 55384.2 moveto
29559.5 55007.3 lineto
stroke
newpath
35637.9 49975.8 moveto
36014.8 49598.9 lineto
stroke
newpath
36014.8 49975.8 moveto
35637.9 49598.9 lineto
stroke
newpath
39179.7 48061.3 moveto
39556.6 47684.5 lineto
stroke
newpath
39556.6 48061.3 moveto
39179.7 47684.5 lineto
stroke
newpath
42290.7 49975.8 moveto
42667.6 49598.9 lineto
stroke
newpath
42667.6 49975.8 moveto
42290.7 49598.9 lineto
stroke
newpath
54974.1 48061.3 moveto
55351 47684.5 lineto
stroke
newpath
55351 48061.3 moveto
54974.1 47684.5 lineto
stroke
newpath
64307.2 49975.8 moveto
64684 49598.9 lineto
stroke
newpath
64684 49975.8 moveto
64307.2 49598.9 lineto
stroke
newpath
65743 46146.8 moveto
66119.9 45770 lineto
stroke
newpath
66119.9 46146.8 moveto
65743 45770 lineto
stroke
newpath
67848.9 55432 moveto
68225.8 55055.2 lineto
stroke
newpath
68225.8 55432 moveto
67848.9 55055.2 lineto
stroke
newpath
73400.9 47343.4 moveto
73777.8 46966.5 lineto
stroke
newpath
73777.8 47343.4 moveto
73400.9 46966.5 lineto
stroke
newpath
76559.8 46625.5 moveto
76936.6 46248.6 lineto
stroke
newpath
76936.6 46625.5 moveto
76559.8 46248.6 lineto
stroke
newpath
81728.8 46625.5 moveto
82105.7 46248.6 lineto
stroke
newpath
82105.7 46625.5 moveto
81728.8 46248.6 lineto
stroke
newpath
91588.4 47343.4 moveto
91965.2 46966.5 lineto
stroke
newpath
91965.2 47343.4 moveto
91588.4 46966.5 lineto
stroke
74784 43881.9 282.648 cir0
newpath
74540.7 44400.1 moveto
74540.7 43363.7 lineto
stroke
newpath
75027.3 44400.1 moveto
75027.3 43363.7 lineto
stroke
74784 43363.7 243.278 180 360 arc0
74784 44400.1 243.278 0 180 arc0
74784 39943.7 282.648 cir0
newpath
74540.7 40226.3 moveto
74540.7 39661 lineto
stroke
newpath
75027.3 40226.3 moveto
75027.3 39661 lineto
stroke
74784 39661 243.278 180 360 arc0
74784 40226.3 243.278 0 180 arc0
82924.3 43881.9 282.648 cir0
newpath
82681 44400.1 moveto
82681 43363.7 lineto
stroke
newpath
83167.5 44400.1 moveto
83167.5 43363.7 lineto
stroke
82924.3 43363.7 243.278 180 360 arc0
82924.3 44400.1 243.278 0 180 arc0
82924.3 39943.7 282.648 cir0
newpath
82681 40226.3 moveto
82681 39661 lineto
stroke
newpath
83167.5 40226.3 moveto
83167.5 39661 lineto
stroke
82924.3 39661 243.278 180 360 arc0
82924.3 40226.3 243.278 0 180 arc0
newpath
76131.3 43688.7 moveto
76131.3 43076.3 lineto
stroke
newpath
75825.1 43382.5 moveto
76437.5 43382.5 lineto
stroke
newpath
81577 43688.7 moveto
81577 43076.3 lineto
stroke
newpath
81270.8 43382.5 moveto
81883.2 43382.5 lineto
stroke
118.11 setlinewidth
0 0 0 setrgbcolor
0 0 0 setrgbcolor
newpath
18097.2 35175.5 moveto
18097.2 36356.6 lineto
18378.5 36356.6 lineto
18547.2 36300.3 lineto
18659.7 36187.9 lineto
18715.9 36075.4 lineto
18772.2 35850.4 lineto
18772.2 35681.7 lineto
18715.9 35456.7 lineto
18659.7 35344.2 lineto
18547.2 35231.7 lineto
18378.5 35175.5 lineto
18097.2 35175.5 lineto
stroke
newpath
19278.3 35175.5 moveto
19278.3 35962.9 lineto
stroke
newpath
19278.3 35737.9 moveto
19334.6 35850.4 lineto
19390.8 35906.6 lineto
19503.3 35962.9 lineto
19615.8 35962.9 lineto
stroke
newpath
20009.5 35175.5 moveto
20009.5 35962.9 lineto
stroke
newpath
20009.5 36356.6 moveto
19953.3 36300.3 lineto
20009.5 36244.1 lineto
20065.7 36300.3 lineto
20009.5 36356.6 lineto
20009.5 36244.1 lineto
stroke
newpath
20740.7 35175.5 moveto
20628.2 35231.7 lineto
20571.9 35344.2 lineto
20571.9 36356.6 lineto
stroke
newpath
21359.3 35175.5 moveto
21246.8 35231.7 lineto
21190.6 35344.2 lineto
21190.6 36356.6 lineto
stroke
newpath
22709.2 35175.5 moveto
22709.2 36356.6 lineto
23102.9 35512.9 lineto
23496.6 36356.6 lineto
23496.6 35175.5 lineto
stroke
newpath
24565.2 35175.5 moveto
24565.2 35794.2 lineto
24508.9 35906.6 lineto
24396.5 35962.9 lineto
24171.5 35962.9 lineto
24059 35906.6 lineto
stroke
newpath
24565.2 35231.7 moveto
24452.7 35175.5 lineto
24171.5 35175.5 lineto
24059 35231.7 lineto
24002.8 35344.2 lineto
24002.8 35456.7 lineto
24059 35569.2 lineto
24171.5 35625.4 lineto
24452.7 35625.4 lineto
24565.2 35681.7 lineto
stroke
newpath
25127.6 35962.9 moveto
25127.6 34781.8 lineto
stroke
newpath
25127.6 35906.6 moveto
25240.1 35962.9 lineto
25465.1 35962.9 lineto
25577.6 35906.6 lineto
25633.8 35850.4 lineto
25690 35737.9 lineto
25690 35400.5 lineto
25633.8 35288 lineto
25577.6 35231.7 lineto
25465.1 35175.5 lineto
25240.1 35175.5 lineto
25127.6 35231.7 lineto
stroke
newpath
26196.2 35288 moveto
26252.5 35231.7 lineto
26196.2 35175.5 lineto
26140 35231.7 lineto
26196.2 35288 lineto
26196.2 35175.5 lineto
stroke
newpath
26196.2 35906.6 moveto
26252.5 35850.4 lineto
26196.2 35794.2 lineto
26140 35850.4 lineto
26196.2 35906.6 lineto
26196.2 35794.2 lineto
stroke
newpath
16592.7 33417.9 moveto
16969.6 33041 lineto
stroke
newpath
16969.6 33417.9 moveto
16592.7 33041 lineto
stroke
0 0 0 setrgbcolor
0 0 0 setrgbcolor
newpath
18322.2 33876.3 moveto
18434.7 33876.3 lineto
18547.2 33820 lineto
18603.4 33763.8 lineto
18659.7 33651.3 lineto
18715.9 33426.3 lineto
18715.9 33145.1 lineto
18659.7 32920.1 lineto
18603.4 32807.7 lineto
18547.2 32751.4 lineto
18434.7 32695.2 lineto
18322.2 32695.2 lineto
18209.7 32751.4 lineto
18153.5 32807.7 lineto
18097.2 32920.1 lineto
18041 33145.1 lineto
18041 33426.3 lineto
18097.2 33651.3 lineto
18153.5 33763.8 lineto
18209.7 33820 lineto
18322.2 33876.3 lineto
stroke
newpath
19222.1 32807.7 moveto
19278.3 32751.4 lineto
19222.1 32695.2 lineto
19165.9 32751.4 lineto
19222.1 32807.7 lineto
19222.1 32695.2 lineto
stroke
newpath
20290.7 33482.6 moveto
20290.7 32695.2 lineto
stroke
newpath
20009.5 33932.5 moveto
19728.3 33088.9 lineto
20459.4 33088.9 lineto
stroke
newpath
21134.4 33876.3 moveto
21246.8 33876.3 lineto
21359.3 33820 lineto
21415.6 33763.8 lineto
21471.8 33651.3 lineto
21528.1 33426.3 lineto
21528.1 33145.1 lineto
21471.8 32920.1 lineto
21415.6 32807.7 lineto
21359.3 32751.4 lineto
21246.8 32695.2 lineto
21134.4 32695.2 lineto
21021.9 32751.4 lineto
20965.6 32807.7 lineto
20909.4 32920.1 lineto
20853.1 33145.1 lineto
20853.1 33426.3 lineto
20909.4 33651.3 lineto
20965.6 33763.8 lineto
21021.9 33820 lineto
21134.4 33876.3 lineto
stroke
newpath
22259.2 33876.3 moveto
22371.7 33876.3 lineto
22484.2 33820 lineto
22540.4 33763.8 lineto
22596.7 33651.3 lineto
22652.9 33426.3 lineto
22652.9 33145.1 lineto
22596.7 32920.1 lineto
22540.4 32807.7 lineto
22484.2 32751.4 lineto
22371.7 32695.2 lineto
22259.2 32695.2 lineto
22146.7 32751.4 lineto
22090.5 32807.7 lineto
22034.3 32920.1 lineto
21978 33145.1 lineto
21978 33426.3 lineto
22034.3 33651.3 lineto
22090.5 33763.8 lineto
22146.7 33820 lineto
22259.2 33876.3 lineto
stroke
newpath
23159.1 32695.2 moveto
23159.1 33482.6 lineto
stroke
newpath
23159.1 33370.1 moveto
23215.4 33426.3 lineto
23327.8 33482.6 lineto
23496.6 33482.6 lineto
23609.1 33426.3 lineto
23665.3 33313.8 lineto
23665.3 32695.2 lineto
stroke
newpath
23665.3 33313.8 moveto
23721.5 33426.3 lineto
23834 33482.6 lineto
24002.8 33482.6 lineto
24115.2 33426.3 lineto
24171.5 33313.8 lineto
24171.5 32695.2 lineto
stroke
newpath
24733.9 32695.2 moveto
24733.9 33482.6 lineto
stroke
newpath
24733.9 33370.1 moveto
24790.2 33426.3 lineto
24902.6 33482.6 lineto
25071.4 33482.6 lineto
25183.9 33426.3 lineto
25240.1 33313.8 lineto
25240.1 32695.2 lineto
stroke
newpath
25240.1 33313.8 moveto
25296.3 33426.3 lineto
25408.8 33482.6 lineto
25577.6 33482.6 lineto
25690 33426.3 lineto
25746.3 33313.8 lineto
25746.3 32695.2 lineto
stroke
newpath
28052.2 33932.5 moveto
27039.9 32414 lineto
stroke
newpath
29570.8 33876.3 moveto
29683.3 33876.3 lineto
29795.8 33820 lineto
29852 33763.8 lineto
29908.3 33651.3 lineto
29964.5 33426.3 lineto
29964.5 33145.1 lineto
29908.3 32920.1 lineto
29852 32807.7 lineto
29795.8 32751.4 lineto
29683.3 32695.2 lineto
29570.8 32695.2 lineto
29458.3 32751.4 lineto
29402.1 32807.7 lineto
29345.8 32920.1 lineto
29289.6 33145.1 lineto
29289.6 33426.3 lineto
29345.8 33651.3 lineto
29402.1 33763.8 lineto
29458.3 33820 lineto
29570.8 33876.3 lineto
stroke
newpath
30470.7 32807.7 moveto
30526.9 32751.4 lineto
30470.7 32695.2 lineto
30414.4 32751.4 lineto
30470.7 32807.7 lineto
30470.7 32695.2 lineto
stroke
newpath
31258.1 33876.3 moveto
31370.6 33876.3 lineto
31483.1 33820 lineto
31539.3 33763.8 lineto
31595.6 33651.3 lineto
31651.8 33426.3 lineto
31651.8 33145.1 lineto
31595.6 32920.1 lineto
31539.3 32807.7 lineto
31483.1 32751.4 lineto
31370.6 32695.2 lineto
31258.1 32695.2 lineto
31145.6 32751.4 lineto
31089.4 32807.7 lineto
31033.1 32920.1 lineto
30976.9 33145.1 lineto
30976.9 33426.3 lineto
31033.1 33651.3 lineto
31089.4 33763.8 lineto
31145.6 33820 lineto
31258.1 33876.3 lineto
stroke
newpath
32776.7 32695.2 moveto
32101.7 32695.2 lineto
stroke
newpath
32439.2 32695.2 moveto
32439.2 33876.3 lineto
32326.7 33707.5 lineto
32214.2 33595.1 lineto
32101.7 33538.8 lineto
stroke
newpath
33845.3 33876.3 moveto
33282.8 33876.3 lineto
33226.6 33313.8 lineto
33282.8 33370.1 lineto
33395.3 33426.3 lineto
33676.5 33426.3 lineto
33789 33370.1 lineto
33845.3 33313.8 lineto
33901.5 33201.4 lineto
33901.5 32920.1 lineto
33845.3 32807.7 lineto
33789 32751.4 lineto
33676.5 32695.2 lineto
33395.3 32695.2 lineto
33282.8 32751.4 lineto
33226.6 32807.7 lineto
stroke
newpath
34295.2 33876.3 moveto
35082.6 33876.3 lineto
34576.4 32695.2 lineto
stroke
newpath
35476.3 33876.3 moveto
35476.3 33651.3 lineto
stroke
newpath
35926.3 33876.3 moveto
35926.3 33651.3 lineto
stroke
newpath
37669.8 32245.2 moveto
37613.5 32301.5 lineto
37501.1 32470.2 lineto
37444.8 32582.7 lineto
37388.6 32751.4 lineto
37332.3 33032.6 lineto
37332.3 33257.6 lineto
37388.6 33538.8 lineto
37444.8 33707.5 lineto
37501.1 33820 lineto
37613.5 33988.8 lineto
37669.8 34045 lineto
stroke
newpath
38738.4 32695.2 moveto
38063.5 32695.2 lineto
stroke
newpath
38400.9 32695.2 moveto
38400.9 33876.3 lineto
38288.5 33707.5 lineto
38176 33595.1 lineto
38063.5 33538.8 lineto
stroke
newpath
39132.1 33876.3 moveto
39863.3 33876.3 lineto
39469.6 33426.3 lineto
39638.3 33426.3 lineto
39750.8 33370.1 lineto
39807 33313.8 lineto
39863.3 33201.4 lineto
39863.3 32920.1 lineto
39807 32807.7 lineto
39750.8 32751.4 lineto
39638.3 32695.2 lineto
39300.8 32695.2 lineto
39188.4 32751.4 lineto
39132.1 32807.7 lineto
stroke
newpath
41269.3 32695.2 moveto
41269.3 33876.3 lineto
stroke
newpath
41775.5 32695.2 moveto
41775.5 33313.8 lineto
41719.3 33426.3 lineto
41606.8 33482.6 lineto
41438.1 33482.6 lineto
41325.6 33426.3 lineto
41269.3 33370.1 lineto
stroke
newpath
42506.7 32695.2 moveto
42394.2 32751.4 lineto
42338 32807.7 lineto
42281.7 32920.1 lineto
42281.7 33257.6 lineto
42338 33370.1 lineto
42394.2 33426.3 lineto
42506.7 33482.6 lineto
42675.4 33482.6 lineto
42787.9 33426.3 lineto
42844.1 33370.1 lineto
42900.4 33257.6 lineto
42900.4 32920.1 lineto
42844.1 32807.7 lineto
42787.9 32751.4 lineto
42675.4 32695.2 lineto
42506.7 32695.2 lineto
stroke
newpath
43575.3 32695.2 moveto
43462.8 32751.4 lineto
43406.6 32863.9 lineto
43406.6 33876.3 lineto
stroke
newpath
44475.2 32751.4 moveto
44362.7 32695.2 lineto
44137.7 32695.2 lineto
44025.2 32751.4 lineto
43969 32863.9 lineto
43969 33313.8 lineto
44025.2 33426.3 lineto
44137.7 33482.6 lineto
44362.7 33482.6 lineto
44475.2 33426.3 lineto
44531.4 33313.8 lineto
44531.4 33201.4 lineto
43969 33088.9 lineto
stroke
newpath
44981.4 32751.4 moveto
45093.9 32695.2 lineto
45318.8 32695.2 lineto
45431.3 32751.4 lineto
45487.6 32863.9 lineto
45487.6 32920.1 lineto
45431.3 33032.6 lineto
45318.8 33088.9 lineto
45150.1 33088.9 lineto
45037.6 33145.1 lineto
44981.4 33257.6 lineto
44981.4 33313.8 lineto
45037.6 33426.3 lineto
45150.1 33482.6 lineto
45318.8 33482.6 lineto
45431.3 33426.3 lineto
stroke
newpath
45881.3 32245.2 moveto
45937.5 32301.5 lineto
46050 32470.2 lineto
46106.2 32582.7 lineto
46162.5 32751.4 lineto
46218.7 33032.6 lineto
46218.7 33257.6 lineto
46162.5 33538.8 lineto
46106.2 33707.5 lineto
46050 33820 lineto
45937.5 33988.8 lineto
45881.3 34045 lineto
stroke
16686.9 31670.4 282.648 cir0
0 0 0 setrgbcolor
0 0 0 setrgbcolor
newpath
18322.2 32317.2 moveto
18434.7 32317.2 lineto
18547.2 32261 lineto
18603.4 32204.7 lineto
18659.7 32092.2 lineto
18715.9 31867.3 lineto
18715.9 31586.1 lineto
18659.7 31361.1 lineto
18603.4 31248.6 lineto
18547.2 31192.4 lineto
18434.7 31136.1 lineto
18322.2 31136.1 lineto
18209.7 31192.4 lineto
18153.5 31248.6 lineto
18097.2 31361.1 lineto
18041 31586.1 lineto
18041 31867.3 lineto
18097.2 32092.2 lineto
18153.5 32204.7 lineto
18209.7 32261 lineto
18322.2 32317.2 lineto
stroke
newpath
19222.1 31248.6 moveto
19278.3 31192.4 lineto
19222.1 31136.1 lineto
19165.9 31192.4 lineto
19222.1 31248.6 lineto
19222.1 31136.1 lineto
stroke
newpath
20290.7 32317.2 moveto
20065.7 32317.2 lineto
19953.3 32261 lineto
19897 32204.7 lineto
19784.5 32036 lineto
19728.3 31811 lineto
19728.3 31361.1 lineto
19784.5 31248.6 lineto
19840.8 31192.4 lineto
19953.3 31136.1 lineto
20178.2 31136.1 lineto
20290.7 31192.4 lineto
20347 31248.6 lineto
20403.2 31361.1 lineto
20403.2 31642.3 lineto
20347 31754.8 lineto
20290.7 31811 lineto
20178.2 31867.3 lineto
19953.3 31867.3 lineto
19840.8 31811 lineto
19784.5 31754.8 lineto
19728.3 31642.3 lineto
stroke
newpath
21134.4 32317.2 moveto
21246.8 32317.2 lineto
21359.3 32261 lineto
21415.6 32204.7 lineto
21471.8 32092.2 lineto
21528.1 31867.3 lineto
21528.1 31586.1 lineto
21471.8 31361.1 lineto
21415.6 31248.6 lineto
21359.3 31192.4 lineto
21246.8 31136.1 lineto
21134.4 31136.1 lineto
21021.9 31192.4 lineto
20965.6 31248.6 lineto
20909.4 31361.1 lineto
20853.1 31586.1 lineto
20853.1 31867.3 lineto
20909.4 32092.2 lineto
20965.6 32204.7 lineto
21021.9 32261 lineto
21134.4 32317.2 lineto
stroke
newpath
22259.2 32317.2 moveto
22371.7 32317.2 lineto
22484.2 32261 lineto
22540.4 32204.7 lineto
22596.7 32092.2 lineto
22652.9 31867.3 lineto
22652.9 31586.1 lineto
22596.7 31361.1 lineto
22540.4 31248.6 lineto
22484.2 31192.4 lineto
22371.7 31136.1 lineto
22259.2 31136.1 lineto
22146.7 31192.4 lineto
22090.5 31248.6 lineto
22034.3 31361.1 lineto
21978 31586.1 lineto
21978 31867.3 lineto
22034.3 32092.2 lineto
22090.5 32204.7 lineto
22146.7 32261 lineto
22259.2 32317.2 lineto
stroke
newpath
23159.1 31136.1 moveto
23159.1 31923.5 lineto
stroke
newpath
23159.1 31811 moveto
23215.4 31867.3 lineto
23327.8 31923.5 lineto
23496.6 31923.5 lineto
23609.1 31867.3 lineto
23665.3 31754.8 lineto
23665.3 31136.1 lineto
stroke
newpath
23665.3 31754.8 moveto
23721.5 31867.3 lineto
23834 31923.5 lineto
24002.8 31923.5 lineto
24115.2 31867.3 lineto
24171.5 31754.8 lineto
24171.5 31136.1 lineto
stroke
newpath
24733.9 31136.1 moveto
24733.9 31923.5 lineto
stroke
newpath
24733.9 31811 moveto
24790.2 31867.3 lineto
24902.6 31923.5 lineto
25071.4 31923.5 lineto
25183.9 31867.3 lineto
25240.1 31754.8 lineto
25240.1 31136.1 lineto
stroke
newpath
25240.1 31754.8 moveto
25296.3 31867.3 lineto
25408.8 31923.5 lineto
25577.6 31923.5 lineto
25690 31867.3 lineto
25746.3 31754.8 lineto
25746.3 31136.1 lineto
stroke
newpath
28052.2 32373.5 moveto
27039.9 30854.9 lineto
stroke
newpath
29570.8 32317.2 moveto
29683.3 32317.2 lineto
29795.8 32261 lineto
29852 32204.7 lineto
29908.3 32092.2 lineto
29964.5 31867.3 lineto
29964.5 31586.1 lineto
29908.3 31361.1 lineto
29852 31248.6 lineto
29795.8 31192.4 lineto
29683.3 31136.1 lineto
29570.8 31136.1 lineto
29458.3 31192.4 lineto
29402.1 31248.6 lineto
29345.8 31361.1 lineto
29289.6 31586.1 lineto
29289.6 31867.3 lineto
29345.8 32092.2 lineto
29402.1 32204.7 lineto
29458.3 32261 lineto
29570.8 32317.2 lineto
stroke
newpath
30470.7 31248.6 moveto
30526.9 31192.4 lineto
30470.7 31136.1 lineto
30414.4 31192.4 lineto
30470.7 31248.6 lineto
30470.7 31136.1 lineto
stroke
newpath
31258.1 32317.2 moveto
31370.6 32317.2 lineto
31483.1 32261 lineto
31539.3 32204.7 lineto
31595.6 32092.2 lineto
31651.8 31867.3 lineto
31651.8 31586.1 lineto
31595.6 31361.1 lineto
31539.3 31248.6 lineto
31483.1 31192.4 lineto
31370.6 31136.1 lineto
31258.1 31136.1 lineto
31145.6 31192.4 lineto
31089.4 31248.6 lineto
31033.1 31361.1 lineto
30976.9 31586.1 lineto
30976.9 31867.3 lineto
31033.1 32092.2 lineto
31089.4 32204.7 lineto
31145.6 32261 lineto
31258.1 32317.2 lineto
stroke
newpath
32101.7 32204.7 moveto
32158 32261 lineto
32270.5 32317.2 lineto
32551.7 32317.2 lineto
32664.2 32261 lineto
32720.4 32204.7 lineto
32776.7 32092.2 lineto
32776.7 31979.8 lineto
32720.4 31811 lineto
32045.5 31136.1 lineto
32776.7 31136.1 lineto
stroke
newpath
33170.4 32317.2 moveto
33901.5 32317.2 lineto
33507.8 31867.3 lineto
33676.5 31867.3 lineto
33789 31811 lineto
33845.3 31754.8 lineto
33901.5 31642.3 lineto
33901.5 31361.1 lineto
33845.3 31248.6 lineto
33789 31192.4 lineto
33676.5 31136.1 lineto
33339.1 31136.1 lineto
33226.6 31192.4 lineto
33170.4 31248.6 lineto
stroke
newpath
34913.9 32317.2 moveto
34688.9 32317.2 lineto
34576.4 32261 lineto
34520.2 32204.7 lineto
34407.7 32036 lineto
34351.5 31811 lineto
34351.5 31361.1 lineto
34407.7 31248.6 lineto
34463.9 31192.4 lineto
34576.4 31136.1 lineto
34801.4 31136.1 lineto
34913.9 31192.4 lineto
34970.1 31248.6 lineto
35026.4 31361.1 lineto
35026.4 31642.3 lineto
34970.1 31754.8 lineto
34913.9 31811 lineto
34801.4 31867.3 lineto
34576.4 31867.3 lineto
34463.9 31811 lineto
34407.7 31754.8 lineto
34351.5 31642.3 lineto
stroke
newpath
35476.3 32317.2 moveto
35476.3 32092.2 lineto
stroke
newpath
35926.3 32317.2 moveto
35926.3 32092.2 lineto
stroke
newpath
37669.8 30686.2 moveto
37613.5 30742.4 lineto
37501.1 30911.1 lineto
37444.8 31023.6 lineto
37388.6 31192.4 lineto
37332.3 31473.6 lineto
37332.3 31698.5 lineto
37388.6 31979.8 lineto
37444.8 32148.5 lineto
37501.1 32261 lineto
37613.5 32429.7 lineto
37669.8 32485.9 lineto
stroke
newpath
38344.7 32317.2 moveto
38457.2 32317.2 lineto
38569.7 32261 lineto
38625.9 32204.7 lineto
38682.2 32092.2 lineto
38738.4 31867.3 lineto
38738.4 31586.1 lineto
38682.2 31361.1 lineto
38625.9 31248.6 lineto
38569.7 31192.4 lineto
38457.2 31136.1 lineto
38344.7 31136.1 lineto
38232.2 31192.4 lineto
38176 31248.6 lineto
38119.7 31361.1 lineto
38063.5 31586.1 lineto
38063.5 31867.3 lineto
38119.7 32092.2 lineto
38176 32204.7 lineto
38232.2 32261 lineto
38344.7 32317.2 lineto
stroke
newpath
40144.5 31136.1 moveto
40144.5 32317.2 lineto
stroke
newpath
40650.7 31136.1 moveto
40650.7 31754.8 lineto
40594.4 31867.3 lineto
40481.9 31923.5 lineto
40313.2 31923.5 lineto
40200.7 31867.3 lineto
40144.5 31811 lineto
stroke
newpath
41381.8 31136.1 moveto
41269.3 31192.4 lineto
41213.1 31248.6 lineto
41156.9 31361.1 lineto
41156.9 31698.5 lineto
41213.1 31811 lineto
41269.3 31867.3 lineto
41381.8 31923.5 lineto
41550.6 31923.5 lineto
41663 31867.3 lineto
41719.3 31811 lineto
41775.5 31698.5 lineto
41775.5 31361.1 lineto
41719.3 31248.6 lineto
41663 31192.4 lineto
41550.6 31136.1 lineto
41381.8 31136.1 lineto
stroke
newpath
42450.4 31136.1 moveto
42338 31192.4 lineto
42281.7 31304.8 lineto
42281.7 32317.2 lineto
stroke
newpath
43350.3 31192.4 moveto
43237.8 31136.1 lineto
43012.9 31136.1 lineto
42900.4 31192.4 lineto
42844.1 31304.8 lineto
42844.1 31754.8 lineto
42900.4 31867.3 lineto
43012.9 31923.5 lineto
43237.8 31923.5 lineto
43350.3 31867.3 lineto
43406.6 31754.8 lineto
43406.6 31642.3 lineto
42844.1 31529.8 lineto
stroke
newpath
43856.5 31192.4 moveto
43969 31136.1 lineto
44194 31136.1 lineto
44306.5 31192.4 lineto
44362.7 31304.8 lineto
44362.7 31361.1 lineto
44306.5 31473.6 lineto
44194 31529.8 lineto
44025.2 31529.8 lineto
43912.8 31586.1 lineto
43856.5 31698.5 lineto
43856.5 31754.8 lineto
43912.8 31867.3 lineto
44025.2 31923.5 lineto
44194 31923.5 lineto
44306.5 31867.3 lineto
stroke
newpath
45768.8 31586.1 moveto
46668.7 31586.1 lineto
stroke
newpath
46218.7 31136.1 moveto
46218.7 32036 lineto
stroke
newpath
48637.2 31923.5 moveto
48637.2 31136.1 lineto
stroke
newpath
48356 32373.5 moveto
48074.7 31529.8 lineto
48805.9 31529.8 lineto
stroke
newpath
50099.5 31192.4 moveto
50212 31136.1 lineto
50436.9 31136.1 lineto
50549.4 31192.4 lineto
50605.7 31304.8 lineto
50605.7 31361.1 lineto
50549.4 31473.6 lineto
50436.9 31529.8 lineto
50268.2 31529.8 lineto
50155.7 31586.1 lineto
50099.5 31698.5 lineto
50099.5 31754.8 lineto
50155.7 31867.3 lineto
50268.2 31923.5 lineto
50436.9 31923.5 lineto
50549.4 31867.3 lineto
stroke
newpath
51280.6 31136.1 moveto
51168.1 31192.4 lineto
51111.9 31304.8 lineto
51111.9 32317.2 lineto
stroke
newpath
51899.3 31136.1 moveto
51786.8 31192.4 lineto
51730.5 31248.6 lineto
51674.3 31361.1 lineto
51674.3 31698.5 lineto
51730.5 31811 lineto
51786.8 31867.3 lineto
51899.3 31923.5 lineto
52068 31923.5 lineto
52180.5 31867.3 lineto
52236.7 31811 lineto
52293 31698.5 lineto
52293 31361.1 lineto
52236.7 31248.6 lineto
52180.5 31192.4 lineto
52068 31136.1 lineto
51899.3 31136.1 lineto
stroke
newpath
52630.4 31923.5 moveto
53080.4 31923.5 lineto
stroke
newpath
52799.1 32317.2 moveto
52799.1 31304.8 lineto
52855.4 31192.4 lineto
52967.9 31136.1 lineto
53080.4 31136.1 lineto
stroke
newpath
53417.8 31192.4 moveto
53530.3 31136.1 lineto
53755.3 31136.1 lineto
53867.8 31192.4 lineto
53924 31304.8 lineto
53924 31361.1 lineto
53867.8 31473.6 lineto
53755.3 31529.8 lineto
53586.5 31529.8 lineto
53474.1 31586.1 lineto
53417.8 31698.5 lineto
53417.8 31754.8 lineto
53474.1 31867.3 lineto
53586.5 31923.5 lineto
53755.3 31923.5 lineto
53867.8 31867.3 lineto
stroke
newpath
54317.7 30686.2 moveto
54373.9 30742.4 lineto
54486.4 30911.1 lineto
54542.7 31023.6 lineto
54598.9 31192.4 lineto
54655.2 31473.6 lineto
54655.2 31698.5 lineto
54598.9 31979.8 lineto
54542.7 32148.5 lineto
54486.4 32261 lineto
54373.9 32429.7 lineto
54317.7 32485.9 lineto
stroke
newpath
16663.4 30417.6 moveto
16663.4 29805.2 lineto
stroke
newpath
16357.2 30111.4 moveto
16969.6 30111.4 lineto
stroke
0 0 0 setrgbcolor
0 0 0 setrgbcolor
newpath
18322.2 30758.2 moveto
18434.7 30758.2 lineto
18547.2 30701.9 lineto
18603.4 30645.7 lineto
18659.7 30533.2 lineto
18715.9 30308.2 lineto
18715.9 30027 lineto
18659.7 29802 lineto
18603.4 29689.5 lineto
18547.2 29633.3 lineto
18434.7 29577.1 lineto
18322.2 29577.1 lineto
18209.7 29633.3 lineto
18153.5 29689.5 lineto
18097.2 29802 lineto
18041 30027 lineto
18041 30308.2 lineto
18097.2 30533.2 lineto
18153.5 30645.7 lineto
18209.7 30701.9 lineto
18322.2 30758.2 lineto
stroke
newpath
19222.1 29689.5 moveto
19278.3 29633.3 lineto
19222.1 29577.1 lineto
19165.9 29633.3 lineto
19222.1 29689.5 lineto
19222.1 29577.1 lineto
stroke
newpath
20290.7 30758.2 moveto
20065.7 30758.2 lineto
19953.3 30701.9 lineto
19897 30645.7 lineto
19784.5 30477 lineto
19728.3 30252 lineto
19728.3 29802 lineto
19784.5 29689.5 lineto
19840.8 29633.3 lineto
19953.3 29577.1 lineto
20178.2 29577.1 lineto
20290.7 29633.3 lineto
20347 29689.5 lineto
20403.2 29802 lineto
20403.2 30083.3 lineto
20347 30195.7 lineto
20290.7 30252 lineto
20178.2 30308.2 lineto
19953.3 30308.2 lineto
19840.8 30252 lineto
19784.5 30195.7 lineto
19728.3 30083.3 lineto
stroke
newpath
21471.8 30758.2 moveto
20909.4 30758.2 lineto
20853.1 30195.7 lineto
20909.4 30252 lineto
21021.9 30308.2 lineto
21303.1 30308.2 lineto
21415.6 30252 lineto
21471.8 30195.7 lineto
21528.1 30083.3 lineto
21528.1 29802 lineto
21471.8 29689.5 lineto
21415.6 29633.3 lineto
21303.1 29577.1 lineto
21021.9 29577.1 lineto
20909.4 29633.3 lineto
20853.1 29689.5 lineto
stroke
newpath
22259.2 30758.2 moveto
22371.7 30758.2 lineto
22484.2 30701.9 lineto
22540.4 30645.7 lineto
22596.7 30533.2 lineto
22652.9 30308.2 lineto
22652.9 30027 lineto
22596.7 29802 lineto
22540.4 29689.5 lineto
22484.2 29633.3 lineto
22371.7 29577.1 lineto
22259.2 29577.1 lineto
22146.7 29633.3 lineto
22090.5 29689.5 lineto
22034.3 29802 lineto
21978 30027 lineto
21978 30308.2 lineto
22034.3 30533.2 lineto
22090.5 30645.7 lineto
22146.7 30701.9 lineto
22259.2 30758.2 lineto
stroke
newpath
23159.1 29577.1 moveto
23159.1 30364.5 lineto
stroke
newpath
23159.1 30252 moveto
23215.4 30308.2 lineto
23327.8 30364.5 lineto
23496.6 30364.5 lineto
23609.1 30308.2 lineto
23665.3 30195.7 lineto
23665.3 29577.1 lineto
stroke
newpath
23665.3 30195.7 moveto
23721.5 30308.2 lineto
23834 30364.5 lineto
24002.8 30364.5 lineto
24115.2 30308.2 lineto
24171.5 30195.7 lineto
24171.5 29577.1 lineto
stroke
newpath
24733.9 29577.1 moveto
24733.9 30364.5 lineto
stroke
newpath
24733.9 30252 moveto
24790.2 30308.2 lineto
24902.6 30364.5 lineto
25071.4 30364.5 lineto
25183.9 30308.2 lineto
25240.1 30195.7 lineto
25240.1 29577.1 lineto
stroke
newpath
25240.1 30195.7 moveto
25296.3 30308.2 lineto
25408.8 30364.5 lineto
25577.6 30364.5 lineto
25690 30308.2 lineto
25746.3 30195.7 lineto
25746.3 29577.1 lineto
stroke
newpath
28052.2 30814.4 moveto
27039.9 29295.8 lineto
stroke
newpath
29570.8 30758.2 moveto
29683.3 30758.2 lineto
29795.8 30701.9 lineto
29852 30645.7 lineto
29908.3 30533.2 lineto
29964.5 30308.2 lineto
29964.5 30027 lineto
29908.3 29802 lineto
29852 29689.5 lineto
29795.8 29633.3 lineto
29683.3 29577.1 lineto
29570.8 29577.1 lineto
29458.3 29633.3 lineto
29402.1 29689.5 lineto
29345.8 29802 lineto
29289.6 30027 lineto
29289.6 30308.2 lineto
29345.8 30533.2 lineto
29402.1 30645.7 lineto
29458.3 30701.9 lineto
29570.8 30758.2 lineto
stroke
newpath
30470.7 29689.5 moveto
30526.9 29633.3 lineto
30470.7 29577.1 lineto
30414.4 29633.3 lineto
30470.7 29689.5 lineto
30470.7 29577.1 lineto
stroke
newpath
31258.1 30758.2 moveto
31370.6 30758.2 lineto
31483.1 30701.9 lineto
31539.3 30645.7 lineto
31595.6 30533.2 lineto
31651.8 30308.2 lineto
31651.8 30027 lineto
31595.6 29802 lineto
31539.3 29689.5 lineto
31483.1 29633.3 lineto
31370.6 29577.1 lineto
31258.1 29577.1 lineto
31145.6 29633.3 lineto
31089.4 29689.5 lineto
31033.1 29802 lineto
30976.9 30027 lineto
30976.9 30308.2 lineto
31033.1 30533.2 lineto
31089.4 30645.7 lineto
31145.6 30701.9 lineto
31258.1 30758.2 lineto
stroke
newpath
32101.7 30645.7 moveto
32158 30701.9 lineto
32270.5 30758.2 lineto
32551.7 30758.2 lineto
32664.2 30701.9 lineto
32720.4 30645.7 lineto
32776.7 30533.2 lineto
32776.7 30420.7 lineto
32720.4 30252 lineto
32045.5 29577.1 lineto
32776.7 29577.1 lineto
stroke
newpath
33845.3 30758.2 moveto
33282.8 30758.2 lineto
33226.6 30195.7 lineto
33282.8 30252 lineto
33395.3 30308.2 lineto
33676.5 30308.2 lineto
33789 30252 lineto
33845.3 30195.7 lineto
33901.5 30083.3 lineto
33901.5 29802 lineto
33845.3 29689.5 lineto
33789 29633.3 lineto
33676.5 29577.1 lineto
33395.3 29577.1 lineto
33282.8 29633.3 lineto
33226.6 29689.5 lineto
stroke
newpath
34913.9 30758.2 moveto
34688.9 30758.2 lineto
34576.4 30701.9 lineto
34520.2 30645.7 lineto
34407.7 30477 lineto
34351.5 30252 lineto
34351.5 29802 lineto
34407.7 29689.5 lineto
34463.9 29633.3 lineto
34576.4 29577.1 lineto
34801.4 29577.1 lineto
34913.9 29633.3 lineto
34970.1 29689.5 lineto
35026.4 29802 lineto
35026.4 30083.3 lineto
34970.1 30195.7 lineto
34913.9 30252 lineto
34801.4 30308.2 lineto
34576.4 30308.2 lineto
34463.9 30252 lineto
34407.7 30195.7 lineto
34351.5 30083.3 lineto
stroke
newpath
35476.3 30758.2 moveto
35476.3 30533.2 lineto
stroke
newpath
35926.3 30758.2 moveto
35926.3 30533.2 lineto
stroke
newpath
37669.8 29127.1 moveto
37613.5 29183.4 lineto
37501.1 29352.1 lineto
37444.8 29464.6 lineto
37388.6 29633.3 lineto
37332.3 29914.5 lineto
37332.3 30139.5 lineto
37388.6 30420.7 lineto
37444.8 30589.4 lineto
37501.1 30701.9 lineto
37613.5 30870.7 lineto
37669.8 30926.9 lineto
stroke
newpath
38063.5 30645.7 moveto
38119.7 30701.9 lineto
38232.2 30758.2 lineto
38513.4 30758.2 lineto
38625.9 30701.9 lineto
38682.2 30645.7 lineto
38738.4 30533.2 lineto
38738.4 30420.7 lineto
38682.2 30252 lineto
38007.2 29577.1 lineto
38738.4 29577.1 lineto
stroke
newpath
40144.5 29577.1 moveto
40144.5 30758.2 lineto
stroke
newpath
40650.7 29577.1 moveto
40650.7 30195.7 lineto
40594.4 30308.2 lineto
40481.9 30364.5 lineto
40313.2 30364.5 lineto
40200.7 30308.2 lineto
40144.5 30252 lineto
stroke
newpath
41381.8 29577.1 moveto
41269.3 29633.3 lineto
41213.1 29689.5 lineto
41156.9 29802 lineto
41156.9 30139.5 lineto
41213.1 30252 lineto
41269.3 30308.2 lineto
41381.8 30364.5 lineto
41550.6 30364.5 lineto
41663 30308.2 lineto
41719.3 30252 lineto
41775.5 30139.5 lineto
41775.5 29802 lineto
41719.3 29689.5 lineto
41663 29633.3 lineto
41550.6 29577.1 lineto
41381.8 29577.1 lineto
stroke
newpath
42450.4 29577.1 moveto
42338 29633.3 lineto
42281.7 29745.8 lineto
42281.7 30758.2 lineto
stroke
newpath
43350.3 29633.3 moveto
43237.8 29577.1 lineto
43012.9 29577.1 lineto
42900.4 29633.3 lineto
42844.1 29745.8 lineto
42844.1 30195.7 lineto
42900.4 30308.2 lineto
43012.9 30364.5 lineto
43237.8 30364.5 lineto
43350.3 30308.2 lineto
43406.6 30195.7 lineto
43406.6 30083.3 lineto
42844.1 29970.8 lineto
stroke
newpath
43856.5 29633.3 moveto
43969 29577.1 lineto
44194 29577.1 lineto
44306.5 29633.3 lineto
44362.7 29745.8 lineto
44362.7 29802 lineto
44306.5 29914.5 lineto
44194 29970.8 lineto
44025.2 29970.8 lineto
43912.8 30027 lineto
43856.5 30139.5 lineto
43856.5 30195.7 lineto
43912.8 30308.2 lineto
44025.2 30364.5 lineto
44194 30364.5 lineto
44306.5 30308.2 lineto
stroke
newpath
44756.4 29127.1 moveto
44812.6 29183.4 lineto
44925.1 29352.1 lineto
44981.4 29464.6 lineto
45037.6 29633.3 lineto
45093.9 29914.5 lineto
45093.9 30139.5 lineto
45037.6 30420.7 lineto
44981.4 30589.4 lineto
44925.1 30701.9 lineto
44812.6 30870.7 lineto
44756.4 30926.9 lineto
stroke
newpath
46893.6 29127.1 moveto
46837.4 29183.4 lineto
46724.9 29352.1 lineto
46668.7 29464.6 lineto
46612.4 29633.3 lineto
46556.2 29914.5 lineto
46556.2 30139.5 lineto
46612.4 30420.7 lineto
46668.7 30589.4 lineto
46724.9 30701.9 lineto
46837.4 30870.7 lineto
46893.6 30926.9 lineto
stroke
newpath
47343.6 30364.5 moveto
47343.6 29577.1 lineto
stroke
newpath
47343.6 30252 moveto
47399.8 30308.2 lineto
47512.3 30364.5 lineto
47681 30364.5 lineto
47793.5 30308.2 lineto
47849.8 30195.7 lineto
47849.8 29577.1 lineto
stroke
newpath
48580.9 29577.1 moveto
48468.4 29633.3 lineto
48412.2 29689.5 lineto
48356 29802 lineto
48356 30139.5 lineto
48412.2 30252 lineto
48468.4 30308.2 lineto
48580.9 30364.5 lineto
48749.7 30364.5 lineto
48862.1 30308.2 lineto
48918.4 30252 lineto
48974.6 30139.5 lineto
48974.6 29802 lineto
48918.4 29689.5 lineto
48862.1 29633.3 lineto
48749.7 29577.1 lineto
48580.9 29577.1 lineto
stroke
newpath
49312.1 30364.5 moveto
49762 30364.5 lineto
stroke
newpath
49480.8 30758.2 moveto
49480.8 29745.8 lineto
49537.1 29633.3 lineto
49649.5 29577.1 lineto
49762 29577.1 lineto
stroke
newpath
51055.6 30364.5 moveto
51055.6 29183.4 lineto
stroke
newpath
51055.6 30308.2 moveto
51168.1 30364.5 lineto
51393.1 30364.5 lineto
51505.6 30308.2 lineto
51561.8 30252 lineto
51618 30139.5 lineto
51618 29802 lineto
51561.8 29689.5 lineto
51505.6 29633.3 lineto
51393.1 29577.1 lineto
51168.1 29577.1 lineto
51055.6 29633.3 lineto
stroke
newpath
52293 29577.1 moveto
52180.5 29633.3 lineto
52124.2 29745.8 lineto
52124.2 30758.2 lineto
stroke
newpath
53249.1 29577.1 moveto
53249.1 30195.7 lineto
53192.8 30308.2 lineto
53080.4 30364.5 lineto
52855.4 30364.5 lineto
52742.9 30308.2 lineto
stroke
newpath
53249.1 29633.3 moveto
53136.6 29577.1 lineto
52855.4 29577.1 lineto
52742.9 29633.3 lineto
52686.7 29745.8 lineto
52686.7 29858.3 lineto
52742.9 29970.8 lineto
52855.4 30027 lineto
53136.6 30027 lineto
53249.1 30083.3 lineto
stroke
newpath
53642.8 30364.5 moveto
54092.7 30364.5 lineto
stroke
newpath
53811.5 30758.2 moveto
53811.5 29745.8 lineto
53867.8 29633.3 lineto
53980.2 29577.1 lineto
54092.7 29577.1 lineto
stroke
newpath
54936.4 29633.3 moveto
54823.9 29577.1 lineto
54598.9 29577.1 lineto
54486.4 29633.3 lineto
54430.2 29745.8 lineto
54430.2 30195.7 lineto
54486.4 30308.2 lineto
54598.9 30364.5 lineto
54823.9 30364.5 lineto
54936.4 30308.2 lineto
54992.6 30195.7 lineto
54992.6 30083.3 lineto
54430.2 29970.8 lineto
stroke
newpath
56005 29577.1 moveto
56005 30758.2 lineto
stroke
newpath
56005 29633.3 moveto
55892.5 29577.1 lineto
55667.5 29577.1 lineto
55555.1 29633.3 lineto
55498.8 29689.5 lineto
55442.6 29802 lineto
55442.6 30139.5 lineto
55498.8 30252 lineto
55555.1 30308.2 lineto
55667.5 30364.5 lineto
55892.5 30364.5 lineto
56005 30308.2 lineto
stroke
newpath
56454.9 29127.1 moveto
56511.2 29183.4 lineto
56623.7 29352.1 lineto
56679.9 29464.6 lineto
56736.2 29633.3 lineto
56792.4 29914.5 lineto
56792.4 30139.5 lineto
56736.2 30420.7 lineto
56679.9 30589.4 lineto
56623.7 30701.9 lineto
56511.2 30870.7 lineto
56454.9 30926.9 lineto
stroke
showpage
grestore
%%EOF
