(footprint "USB_C_Receptacle_HRO_TYPE-C-31-M-12" (version 20211014) (generator pcbnew)
  (layer "F.Cu")
  (tedit 5D3C0721)
  (descr "USB Type-C receptacle for USB 2.0 and PD, http://www.krhro.com/uploads/soft/180320/1-1P320120243.pdf")
  (tags "usb usb-c 2.0 pd")
  (attr smd)
  (fp_text reference "REF**" (at 0 -5.645) (layer "F.SilkS")
    (effects (font (size 1 1) (thickness 0.15)))
    (tstamp 95a40d19-41c6-4680-9b37-9cb1bed1a413)
  )
  (fp_text value "USB_C_Receptacle_USB2.0" (at 0 5.1) (layer "F.Fab")
    (effects (font (size 1 1) (thickness 0.15)))
    (tstamp 720f9518-b0d8-4879-8ffc-0a3335e2eb9d)
  )
  (fp_text user "${REFERENCE}" (at 0 0) (layer "F.Fab")
    (effects (font (size 1 1) (thickness 0.15)))
    (tstamp 6e18bff7-8b21-4bb4-8a05-3a319b07518f)
  )
  (fp_line (start 4.7 2) (end 4.7 3.9) (layer "F.SilkS") (width 0.12) (tstamp 53a382a5-9123-45f3-a2e9-3b2de6ca541d))
  (fp_line (start 4.7 -1.9) (end 4.7 0.1) (layer "F.SilkS") (width 0.12) (tstamp 6162fbb8-6718-45ec-b23f-6a6f1488ec21))
  (fp_line (start -4.7 3.9) (end 4.7 3.9) (layer "F.SilkS") (width 0.12) (tstamp 63a30107-e64a-4f1f-b117-b90cb84b149e))
  (fp_line (start -4.7 2) (end -4.7 3.9) (layer "F.SilkS") (width 0.12) (tstamp a58b425b-6fc3-4a86-ae11-a84decf83c5a))
  (fp_line (start -4.7 -1.9) (end -4.7 0.1) (layer "F.SilkS") (width 0.12) (tstamp f5bc60e0-ca9c-4444-9bc3-6e40e983addd))
  (fp_line (start -5.32 4.15) (end 5.32 4.15) (layer "F.CrtYd") (width 0.05) (tstamp 3adb9496-2d9f-40cf-b330-cf802996ea7f))
  (fp_line (start -5.32 -5.27) (end -5.32 4.15) (layer "F.CrtYd") (width 0.05) (tstamp 4e861688-f76d-4846-81a3-359bef1f427a))
  (fp_line (start 5.32 -5.27) (end 5.32 4.15) (layer "F.CrtYd") (width 0.05) (tstamp c548aac3-2100-48bf-a57e-c299f9466e79))
  (fp_line (start -5.32 -5.27) (end 5.32 -5.27) (layer "F.CrtYd") (width 0.05) (tstamp c6750bbb-1f60-4923-a832-20fb722c1b93))
  (fp_line (start 4.47 -3.65) (end 4.47 3.65) (layer "F.Fab") (width 0.1) (tstamp 6a82e1e6-8e23-40fe-9f7f-da90c0712b96))
  (fp_line (start -4.47 3.65) (end 4.47 3.65) (layer "F.Fab") (width 0.1) (tstamp a2c6281c-1798-4c93-a973-786fd5788e7e))
  (fp_line (start -4.47 -3.65) (end -4.47 3.65) (layer "F.Fab") (width 0.1) (tstamp a43a5da1-e224-4f65-b747-f67973f2af88))
  (fp_line (start -4.47 -3.65) (end 4.47 -3.65) (layer "F.Fab") (width 0.1) (tstamp cacc113d-885e-464c-bed1-96200200e5f6))
  (pad "" np_thru_hole circle (at 2.89 -2.6) (size 0.65 0.65) (drill 0.65) (layers *.Cu *.Mask) (tstamp a092ea0d-146f-427f-adaf-641182334974))
  (pad "" np_thru_hole circle (at -2.89 -2.6) (size 0.65 0.65) (drill 0.65) (layers *.Cu *.Mask) (tstamp c77b66c0-41f5-4d31-abb8-e152e2d28a11))
  (pad "A1" smd rect (at -3.25 -4.045) (size 0.6 1.45) (layers "F.Cu" "F.Paste" "F.Mask") (tstamp 92832a32-dcb2-4058-8ad9-237ebe5ab0e8))
  (pad "A4" smd rect (at -2.45 -4.045) (size 0.6 1.45) (layers "F.Cu" "F.Paste" "F.Mask") (tstamp 0c83fcb5-bcc7-4f84-8394-d4fc9899e233))
  (pad "A5" smd rect (at -1.25 -4.045) (size 0.3 1.45) (layers "F.Cu" "F.Paste" "F.Mask") (tstamp a4372ae3-288f-4a9a-96e7-306ddba718f6))
  (pad "A6" smd rect (at -0.25 -4.045) (size 0.3 1.45) (layers "F.Cu" "F.Paste" "F.Mask") (tstamp e671ffe9-4ebb-42bd-be8d-cda9a798e138))
  (pad "A7" smd rect (at 0.25 -4.045) (size 0.3 1.45) (layers "F.Cu" "F.Paste" "F.Mask") (tstamp 719303cc-9ddf-4f19-9751-b8db3875f499))
  (pad "A8" smd rect (at 1.25 -4.045) (size 0.3 1.45) (layers "F.Cu" "F.Paste" "F.Mask") (tstamp 0c9e7917-e0a0-46fb-b233-2640231d0e2c))
  (pad "A9" smd rect (at 2.45 -4.045) (size 0.6 1.45) (layers "F.Cu" "F.Paste" "F.Mask") (tstamp f01a08c4-d9f1-4838-af18-b59bca81082c))
  (pad "A12" smd rect (at 3.25 -4.045) (size 0.6 1.45) (layers "F.Cu" "F.Paste" "F.Mask") (tstamp 784b6458-3ae8-48f4-9482-731714d7927e))
  (pad "B1" smd rect (at 3.25 -4.045) (size 0.6 1.45) (layers "F.Cu" "F.Paste" "F.Mask") (tstamp eb8e38cd-dc17-4593-889c-e9f58005f6e7))
  (pad "B4" smd rect (at 2.45 -4.045) (size 0.6 1.45) (layers "F.Cu" "F.Paste" "F.Mask") (tstamp 3da2a955-efa4-4cba-97bf-5c3895b6ca21))
  (pad "B5" smd rect (at 1.75 -4.045) (size 0.3 1.45) (layers "F.Cu" "F.Paste" "F.Mask") (tstamp 2b670198-954c-4e3b-b1b0-4485bbd2f4ee))
  (pad "B6" smd rect (at 0.75 -4.045) (size 0.3 1.45) (layers "F.Cu" "F.Paste" "F.Mask") (tstamp 202e566d-5dd9-4e58-8d82-bf96da938851))
  (pad "B7" smd rect (at -0.75 -4.045) (size 0.3 1.45) (layers "F.Cu" "F.Paste" "F.Mask") (tstamp e2c309e4-b8cd-4d42-b61b-673943cf082a))
  (pad "B8" smd rect (at -1.75 -4.045) (size 0.3 1.45) (layers "F.Cu" "F.Paste" "F.Mask") (tstamp 939bb0a1-244e-4741-90f1-d06027d85c51))
  (pad "B9" smd rect (at -2.45 -4.045) (size 0.6 1.45) (layers "F.Cu" "F.Paste" "F.Mask") (tstamp 74d431fd-cb2a-4a57-b8ad-03906426963d))
  (pad "B12" smd rect (at -3.25 -4.045) (size 0.6 1.45) (layers "F.Cu" "F.Paste" "F.Mask") (tstamp e584f27e-45dd-4fdd-8c50-c7400e4b2ab2))
  (pad "S1" thru_hole oval (at 4.32 1.05) (size 1 1.6) (drill oval 0.6 1.2) (layers *.Cu *.Mask) (tstamp 4126d392-495e-4ef5-9351-6f700c8637bc))
  (pad "S1" thru_hole oval (at -4.32 -3.13) (size 1 2.1) (drill oval 0.6 1.7) (layers *.Cu *.Mask) (tstamp 89b81b16-224b-4483-a357-720a8e6eb208))
  (pad "S1" thru_hole oval (at 4.32 -3.13) (size 1 2.1) (drill oval 0.6 1.7) (layers *.Cu *.Mask) (tstamp a43ae97f-ff8c-43dd-8d6d-82a22f1be9b5))
  (pad "S1" thru_hole oval (at -4.32 1.05) (size 1 1.6) (drill oval 0.6 1.2) (layers *.Cu *.Mask) (tstamp ff870511-3a90-49f1-9990-5aec7ad35822))
  (model "${KISYS3DMOD}/Connector_USB.3dshapes/USB_C_Receptacle_HRO_TYPE-C-31-M-12.wrl"
    (offset (xyz 0 0 0))
    (scale (xyz 1 1 1))
    (rotate (xyz 0 0 0))
  )
)
